<?xml version="1.0" encoding="UTF-8" standalone="no"?>
<!-- Created with Inkscape (http://www.inkscape.org/) -->

<svg
   width="210mm"
   height="297mm"
   viewBox="0 0 210 297"
   version="1.1"
   id="svg28314"
   inkscape:version="1.1.2 (0a00cf5339, 2022-02-04, custom)"
   sodipodi:docname="drawing-1.svg"
   xmlns:inkscape="http://www.inkscape.org/namespaces/inkscape"
   xmlns:sodipodi="http://sodipodi.sourceforge.net/DTD/sodipodi-0.dtd"
   xmlns="http://www.w3.org/2000/svg"
   xmlns:svg="http://www.w3.org/2000/svg">
  <sodipodi:namedview
     id="namedview28316"
     pagecolor="#505050"
     bordercolor="#eeeeee"
     borderopacity="1"
     inkscape:pageshadow="0"
     inkscape:pageopacity="0"
     inkscape:pagecheckerboard="0"
     inkscape:document-units="mm"
     showgrid="false"
     inkscape:zoom="1.2810466"
     inkscape:cx="304.50235"
     inkscape:cy="539.7078"
     inkscape:window-width="1920"
     inkscape:window-height="1017"
     inkscape:window-x="-8"
     inkscape:window-y="-8"
     inkscape:window-maximized="1"
     inkscape:current-layer="layer1" />
  <defs
     id="defs28311">
    <inkscape:path-effect
       effect="bspline"
       id="path-effect29391"
       is_visible="true"
       lpeversion="1"
       weight="33.333333"
       steps="2"
       helper_size="0"
       apply_no_weight="true"
       apply_with_weight="true"
       only_selected="false" />
    <inkscape:path-effect
       effect="bspline"
       id="path-effect18681-3"
       is_visible="true"
       lpeversion="1"
       weight="33.333333"
       steps="2"
       helper_size="0"
       apply_no_weight="true"
       apply_with_weight="true"
       only_selected="false" />
    <inkscape:path-effect
       effect="bspline"
       id="path-effect19383-1"
       is_visible="true"
       lpeversion="1"
       weight="33.333333"
       steps="2"
       helper_size="0"
       apply_no_weight="true"
       apply_with_weight="true"
       only_selected="false" />
    <inkscape:path-effect
       effect="bspline"
       id="path-effect18681"
       is_visible="true"
       lpeversion="1"
       weight="33.333333"
       steps="2"
       helper_size="0"
       apply_no_weight="true"
       apply_with_weight="true"
       only_selected="false" />
    <inkscape:path-effect
       effect="bspline"
       id="path-effect19383"
       is_visible="true"
       lpeversion="1"
       weight="33.333333"
       steps="2"
       helper_size="0"
       apply_no_weight="true"
       apply_with_weight="true"
       only_selected="false" />
    <inkscape:path-effect
       effect="bspline"
       id="path-effect18681-4"
       is_visible="true"
       lpeversion="1"
       weight="33.333333"
       steps="2"
       helper_size="0"
       apply_no_weight="true"
       apply_with_weight="true"
       only_selected="false" />
    <inkscape:path-effect
       effect="bspline"
       id="path-effect19383-6"
       is_visible="true"
       lpeversion="1"
       weight="33.333333"
       steps="2"
       helper_size="0"
       apply_no_weight="true"
       apply_with_weight="true"
       only_selected="false" />
  </defs>
  <g
     inkscape:label="Layer 1"
     inkscape:groupmode="layer"
     id="layer1">
    <g
       id="g30852"
       transform="matrix(4.1725886,0,0,4.1725886,-334.1099,-578.47692)">
      <path
         style="display:inline;mix-blend-mode:normal;fill:none;stroke:#000000;stroke-width:0.387249;stroke-linecap:butt;stroke-linejoin:miter;stroke-miterlimit:4;stroke-dasharray:none;stroke-opacity:1"
         d="m 91.152049,180.99835 0.0386,-12.50782 3.542083,0.0116 2.190664,-0.002 c 2.196736,0.50889 3.002546,2.08981 2.943586,4.03415 -0.15806,3.55023 -2.710634,3.82068 -5.144037,3.83149 l 0.01928,4.63252 z"
         id="path1748"
         sodipodi:nodetypes="cccccccc" />
      <path
         style="display:inline;mix-blend-mode:normal;fill:none;stroke:#000000;stroke-width:0.387249;stroke-linecap:butt;stroke-linejoin:miter;stroke-miterlimit:4;stroke-dasharray:none;stroke-opacity:1"
         d="m 110.06581,168.55276 -0.0741,12.36349 6.1632,-0.0371 c 0.39046,-0.121 0.85594,-0.29035 1.15172,-0.51081 0.82787,-0.61703 1.31346,-1.48099 1.47553,-2.59242 0.0523,-1.70298 -0.38954,-3.36793 -2.31507,-3.39687 1.14283,-0.12672 1.9306,-0.69281 1.98973,-2.8096 0.0649,-0.75265 -0.11627,-2.6978 -2.87681,-3.1156 z"
         id="path9836"
         sodipodi:nodetypes="cccsccccc" />
      <path
         style="display:inline;mix-blend-mode:normal;fill:none;stroke:#000000;stroke-width:0.387249;stroke-linecap:butt;stroke-linejoin:miter;stroke-miterlimit:4;stroke-dasharray:none;stroke-opacity:1"
         d="m 94.806718,171.16093 -0.03495,2.55276 c 1.177276,0.032 1.34764,-0.46802 1.424997,-1.1977 -0.01038,-1.37394 -0.522412,-1.32035 -1.390031,-1.35506 z"
         id="path11870"
         sodipodi:nodetypes="cccc" />
      <path
         style="display:inline;mix-blend-mode:normal;fill:none;stroke:#000000;stroke-width:0.387249;stroke-linecap:butt;stroke-linejoin:miter;stroke-miterlimit:4;stroke-dasharray:none;stroke-opacity:1"
         d="m 113.5902,171.16908 -0.0288,1.93459 c 1.17647,0.0333 1.18885,-0.0632 1.27664,-0.91334 0.0249,-1.16467 -0.38394,-0.98323 -1.24785,-1.02125 z"
         id="path11870-3"
         sodipodi:nodetypes="cccc" />
      <path
         style="display:inline;mix-blend-mode:normal;fill:none;stroke:#000000;stroke-width:0.387249;stroke-linecap:butt;stroke-linejoin:miter;stroke-miterlimit:4;stroke-dasharray:none;stroke-opacity:1"
         d="m 113.62605,175.75463 0.002,2.46003 c 1.18206,0.0305 1.34997,-0.38842 1.38791,-1.10497 -0.0233,-1.38681 -0.52441,-1.32236 -1.39002,-1.35506 z"
         id="path11870-2"
         sodipodi:nodetypes="cccc" />
      <ellipse
         style="mix-blend-mode:normal;fill:none;fill-opacity:1;stroke:#000000;stroke-width:0.0793003;stroke-linecap:round;stroke-miterlimit:0.1;stroke-dasharray:none;stroke-opacity:1;paint-order:normal"
         id="path15935"
         ry="0.37090492"
         rx="0.36781403"
         cy="175.83177"
         cx="104.0587" />
      <path
         style="mix-blend-mode:normal;fill:none;stroke:#000000;stroke-width:0.38725;stroke-linecap:butt;stroke-linejoin:miter;stroke-miterlimit:4;stroke-dasharray:none;stroke-opacity:1"
         d="m 101.35006,168.46895 7.01748,-0.0373 c 0.0837,1.61825 0.24717,3.2209 0.0955,4.87258 -0.0424,0.8542 -0.49105,1.69938 -0.79163,2.45677 -0.33928,1.70001 -0.0459,3.35497 -0.0675,4.9844 -2.2793,0.48502 -4.0978,0.41792 -5.47285,-0.0469 0.0939,-2.82146 -0.007,-3.67111 -0.0848,-4.8482 -0.58304,-1.51976 -0.59071,-1.45162 -0.78968,-2.50514 -0.14577,-1.69481 0.0349,-3.28356 0.0935,-4.8762 z"
         id="path3034"
         sodipodi:nodetypes="ccccccccc" />
      <path
         style="mix-blend-mode:normal;fill:none;stroke:#000000;stroke-width:0.46655;stroke-linecap:round;stroke-linejoin:miter;stroke-miterlimit:1;stroke-dasharray:none;stroke-opacity:1;paint-order:normal"
         d="m 105.89726,176.40775 c -0.0597,-0.30322 0.0905,-0.87981 0.2288,-1.35378"
         id="path5472"
         sodipodi:nodetypes="cc" />
      <path
         style="mix-blend-mode:normal;fill:none;stroke:#000000;stroke-width:0.440117;stroke-linecap:round;stroke-linejoin:miter;stroke-miterlimit:4;stroke-dasharray:none;stroke-opacity:1"
         d="m 106.47798,173.77934 c 0.19899,-1.29622 0.26589,-2.5769 0.029,-3.82183"
         id="path5474"
         sodipodi:nodetypes="cc" />
      <path
         style="display:inline;mix-blend-mode:normal;fill:none;stroke:#000000;stroke-width:0.46655;stroke-linecap:round;stroke-linejoin:miter;stroke-miterlimit:1;stroke-dasharray:none;stroke-opacity:1;paint-order:normal"
         d="m 107.5172,179.41099 c -0.47043,0.53874 -4.34596,0.54074 -5.32241,-0.068"
         id="path5472-3"
         sodipodi:nodetypes="cc" />
      <path
         style="mix-blend-mode:normal;fill:none;stroke:#000000;stroke-width:0.0699384px;stroke-linecap:butt;stroke-linejoin:miter;stroke-opacity:1"
         d="m 102.57863,171.76634 c 10e-4,0.21935 0.003,0.43864 0.12212,0.54925 0.11945,0.11061 0.35694,0.11261 0.47466,0.003 0.11772,-0.11007 0.11572,-0.33226 0.11372,-0.55453"
         id="path18679"
         sodipodi:nodetypes="cccc"
         inkscape:original-d="m 102.57863,171.76634 c 0.002,0.21935 0.003,0.43864 0.004,0.65786 0.23757,0.002 0.47506,0.004 0.7125,0.006 -0.002,-0.22214 -0.004,-0.44433 -0.006,-0.6666"
         inkscape:path-effect="#path-effect18681" />
      <path
         style="mix-blend-mode:normal;fill:none;stroke:#000000;stroke-width:0.0699384px;stroke-linecap:butt;stroke-linejoin:miter;stroke-opacity:1"
         d="m 103.7348,173.87761 c 10e-4,0.36208 0.003,0.72422 0.11739,0.90341 0.11473,0.17919 0.34274,0.17555 0.45638,-0.008 0.11365,-0.18392 0.11299,-0.54817 0.11232,-0.9125"
         id="path19381"
         sodipodi:nodetypes="cccc"
         inkscape:original-d="m 103.7348,173.87761 c 0,0 0.003,0.72422 0.004,1.08623 0.22811,-0.004 0.45613,-0.007 0.68409,-0.0109 -5.3e-4,-0.3642 -10e-4,-0.72845 -0.002,-1.09278"
         inkscape:path-effect="#path-effect19383" />
      <path
         style="mix-blend-mode:normal;fill:none;stroke:#000000;stroke-width:0.0699384px;stroke-linecap:butt;stroke-linejoin:miter;stroke-opacity:1"
         d="m 103.73371,173.90384 v -3.89837"
         id="path20619" />
      <path
         style="mix-blend-mode:normal;fill:none;stroke:#000000;stroke-width:0.0699384px;stroke-linecap:butt;stroke-linejoin:miter;stroke-opacity:1"
         d="m 104.42033,173.88529 v -3.88271"
         id="path20621" />
      <path
         style="mix-blend-mode:normal;fill:none;stroke:#000000;stroke-width:0.0699384px;stroke-linecap:butt;stroke-linejoin:miter;stroke-opacity:1"
         d="m 102.57863,171.79639 v -1.79218"
         id="path20623" />
      <path
         style="mix-blend-mode:normal;fill:none;stroke:#000000;stroke-width:0.0699384px;stroke-linecap:butt;stroke-linejoin:miter;stroke-opacity:1"
         d="m 103.28895,171.79694 v -1.79655"
         id="path20625" />
      <path
         style="display:inline;mix-blend-mode:normal;fill:none;stroke:#000000;stroke-width:0.387249;stroke-linecap:butt;stroke-linejoin:miter;stroke-miterlimit:4;stroke-dasharray:none;stroke-opacity:1"
         d="m 97.534317,180.27042 4.650903,-4.03021"
         id="path20808"
         sodipodi:nodetypes="cc" />
      <path
         style="display:inline;mix-blend-mode:normal;fill:none;stroke:#000000;stroke-width:0.41735;stroke-linecap:butt;stroke-linejoin:miter;stroke-miterlimit:4;stroke-dasharray:none;stroke-opacity:1"
         d="m 107.46721,176.99734 2.55823,-2.38849"
         id="path21005" />
      <path
         style="display:inline;mix-blend-mode:normal;fill:none;stroke:#000000;stroke-width:0.387249;stroke-linecap:butt;stroke-linejoin:miter;stroke-miterlimit:4;stroke-dasharray:none;stroke-opacity:1"
         d="m 108.48842,170.38286 1.59985,-1.34632"
         id="path21007"
         sodipodi:nodetypes="cc" />
      <path
         style="display:inline;mix-blend-mode:normal;fill:none;stroke:#000000;stroke-width:0.264334;stroke-linecap:butt;stroke-linejoin:miter;stroke-miterlimit:4;stroke-dasharray:none;stroke-opacity:1"
         d="m 94.841685,179.00278 c 1.962768,4.59728 5.747325,7.68723 10.228495,8.74232 6.1178,-2.03989 7.36293,-4.40153 9.09201,-6.76656"
         id="path23027"
         sodipodi:nodetypes="ccc" />
      <path
         style="display:inline;mix-blend-mode:normal;fill:none;stroke:#000000;stroke-width:0.264334;stroke-linecap:butt;stroke-linejoin:miter;stroke-miterlimit:4;stroke-dasharray:none;stroke-opacity:1"
         d="m 94.509478,168.37213 0.03495,-3.95152 20.841662,-0.0349 0.0183,3.95152"
         id="path23465"
         sodipodi:nodetypes="cccc" />
      <path
         style="display:inline;mix-blend-mode:normal;fill:none;stroke:#000000;stroke-width:0.264334;stroke-linecap:butt;stroke-linejoin:miter;stroke-miterlimit:4;stroke-dasharray:none;stroke-opacity:1"
         d="m 96.589603,168.55276 -0.02472,-2.00289 16.764907,-0.0989"
         id="path23751" />
      <path
         style="display:inline;mix-blend-mode:normal;fill:none;stroke:#000000;stroke-width:0.264334;stroke-linecap:butt;stroke-linejoin:miter;stroke-miterlimit:4;stroke-dasharray:none;stroke-opacity:1"
         d="m 103.0557,181.05225 -2.58397,2.39852 c 1.28715,0.9682 2.45802,1.81647 4.83414,2.25016"
         id="path23866"
         sodipodi:nodetypes="ccc" />
      <path
         style="display:inline;mix-blend-mode:normal;fill:none;stroke:#000000;stroke-width:0.264334;stroke-linecap:butt;stroke-linejoin:miter;stroke-miterlimit:4;stroke-dasharray:none;stroke-opacity:1"
         d="m 97.677594,180.21153 c -0.797855,-1.14552 -1.052461,-2.50586 -1.02617,-3.98104"
         id="path24266"
         sodipodi:nodetypes="cc" />
    </g>
  </g>
</svg>
